{
  "configVersion": 2,
  "packages": [
    {
      "name": "_fe_analyzer_shared",
      "rootUri": "file:///Users/musakirkkeseli/developer/flutter/.pub-cache/hosted/pub.dartlang.org/_fe_analyzer_shared-38.0.0",
      "packageUri": "lib/",
      "languageVersion": "2.12"
    },
    {
      "name": "analyzer",
      "rootUri": "file:///Users/musakirkkeseli/developer/flutter/.pub-cache/hosted/pub.dartlang.org/analyzer-3.4.1",
      "packageUri": "lib/",
      "languageVersion": "2.14"
    },
    {
      "name": "args",
      "rootUri": "file:///Users/musakirkkeseli/developer/flutter/.pub-cache/hosted/pub.dartlang.org/args-2.3.0",
      "packageUri": "lib/",
      "languageVersion": "2.12"
    },
    {
      "name": "async",
      "rootUri": "file:///Users/musakirkkeseli/developer/flutter/.pub-cache/hosted/pub.dartlang.org/async-2.8.2",
      "packageUri": "lib/",
      "languageVersion": "2.12"
    },
    {
      "name": "boolean_selector",
      "rootUri": "file:///Users/musakirkkeseli/developer/flutter/.pub-cache/hosted/pub.dartlang.org/boolean_selector-2.1.0",
      "packageUri": "lib/",
      "languageVersion": "2.12"
    },
    {
      "name": "build",
      "rootUri": "file:///Users/musakirkkeseli/developer/flutter/.pub-cache/hosted/pub.dartlang.org/build-2.3.0",
      "packageUri": "lib/",
      "languageVersion": "2.14"
    },
    {
      "name": "build_config",
      "rootUri": "file:///Users/musakirkkeseli/developer/flutter/.pub-cache/hosted/pub.dartlang.org/build_config-1.0.0",
      "packageUri": "lib/",
      "languageVersion": "2.12"
    },
    {
      "name": "build_daemon",
      "rootUri": "file:///Users/musakirkkeseli/developer/flutter/.pub-cache/hosted/pub.dartlang.org/build_daemon-3.1.0",
      "packageUri": "lib/",
      "languageVersion": "2.14"
    },
    {
      "name": "build_resolvers",
      "rootUri": "file:///Users/musakirkkeseli/developer/flutter/.pub-cache/hosted/pub.dartlang.org/build_resolvers-2.0.8",
      "packageUri": "lib/",
      "languageVersion": "2.14"
    },
    {
      "name": "build_runner",
      "rootUri": "file:///Users/musakirkkeseli/developer/flutter/.pub-cache/hosted/pub.dartlang.org/build_runner-2.1.10",
      "packageUri": "lib/",
      "languageVersion": "2.14"
    },
    {
      "name": "build_runner_core",
      "rootUri": "file:///Users/musakirkkeseli/developer/flutter/.pub-cache/hosted/pub.dartlang.org/build_runner_core-7.2.3",
      "packageUri": "lib/",
      "languageVersion": "2.14"
    },
    {
      "name": "built_collection",
      "rootUri": "file:///Users/musakirkkeseli/developer/flutter/.pub-cache/hosted/pub.dartlang.org/built_collection-5.1.1",
      "packageUri": "lib/",
      "languageVersion": "2.12"
    },
    {
      "name": "built_value",
      "rootUri": "file:///Users/musakirkkeseli/developer/flutter/.pub-cache/hosted/pub.dartlang.org/built_value-8.2.0",
      "packageUri": "lib/",
      "languageVersion": "2.12"
    },
    {
      "name": "characters",
      "rootUri": "file:///Users/musakirkkeseli/developer/flutter/.pub-cache/hosted/pub.dartlang.org/characters-1.2.0",
      "packageUri": "lib/",
      "languageVersion": "2.12"
    },
    {
      "name": "charcode",
      "rootUri": "file:///Users/musakirkkeseli/developer/flutter/.pub-cache/hosted/pub.dartlang.org/charcode-1.3.1",
      "packageUri": "lib/",
      "languageVersion": "2.12"
    },
    {
      "name": "checked_yaml",
      "rootUri": "file:///Users/musakirkkeseli/developer/flutter/.pub-cache/hosted/pub.dartlang.org/checked_yaml-2.0.1",
      "packageUri": "lib/",
      "languageVersion": "2.12"
    },
    {
      "name": "clock",
      "rootUri": "file:///Users/musakirkkeseli/developer/flutter/.pub-cache/hosted/pub.dartlang.org/clock-1.1.0",
      "packageUri": "lib/",
      "languageVersion": "2.12"
    },
    {
      "name": "cloud_firestore",
      "rootUri": "file:///Users/musakirkkeseli/developer/flutter/.pub-cache/hosted/pub.dartlang.org/cloud_firestore-3.1.12",
      "packageUri": "lib/",
      "languageVersion": "2.16"
    },
    {
      "name": "cloud_firestore_platform_interface",
      "rootUri": "file:///Users/musakirkkeseli/developer/flutter/.pub-cache/hosted/pub.dartlang.org/cloud_firestore_platform_interface-5.5.3",
      "packageUri": "lib/",
      "languageVersion": "2.16"
    },
    {
      "name": "cloud_firestore_web",
      "rootUri": "file:///Users/musakirkkeseli/developer/flutter/.pub-cache/hosted/pub.dartlang.org/cloud_firestore_web-2.6.12",
      "packageUri": "lib/",
      "languageVersion": "2.16"
    },
    {
      "name": "code_builder",
      "rootUri": "file:///Users/musakirkkeseli/developer/flutter/.pub-cache/hosted/pub.dartlang.org/code_builder-4.1.0",
      "packageUri": "lib/",
      "languageVersion": "2.12"
    },
    {
      "name": "collection",
      "rootUri": "file:///Users/musakirkkeseli/developer/flutter/.pub-cache/hosted/pub.dartlang.org/collection-1.15.0",
      "packageUri": "lib/",
      "languageVersion": "2.12"
    },
    {
      "name": "convert",
      "rootUri": "file:///Users/musakirkkeseli/developer/flutter/.pub-cache/hosted/pub.dartlang.org/convert-3.0.1",
      "packageUri": "lib/",
      "languageVersion": "2.12"
    },
    {
      "name": "crypto",
      "rootUri": "file:///Users/musakirkkeseli/developer/flutter/.pub-cache/hosted/pub.dartlang.org/crypto-3.0.1",
      "packageUri": "lib/",
      "languageVersion": "2.12"
    },
    {
      "name": "cupertino_icons",
      "rootUri": "file:///Users/musakirkkeseli/developer/flutter/.pub-cache/hosted/pub.dartlang.org/cupertino_icons-1.0.4",
      "packageUri": "lib/",
      "languageVersion": "2.12"
    },
    {
      "name": "dart_style",
      "rootUri": "file:///Users/musakirkkeseli/developer/flutter/.pub-cache/hosted/pub.dartlang.org/dart_style-2.2.3",
      "packageUri": "lib/",
      "languageVersion": "2.12"
    },
    {
      "name": "dio",
      "rootUri": "file:///Users/musakirkkeseli/developer/flutter/.pub-cache/hosted/pub.dartlang.org/dio-4.0.6",
      "packageUri": "lib/",
      "languageVersion": "2.12"
    },
    {
      "name": "fake_async",
      "rootUri": "file:///Users/musakirkkeseli/developer/flutter/.pub-cache/hosted/pub.dartlang.org/fake_async-1.2.0",
      "packageUri": "lib/",
      "languageVersion": "2.12"
    },
    {
      "name": "ffi",
      "rootUri": "file:///Users/musakirkkeseli/developer/flutter/.pub-cache/hosted/pub.dartlang.org/ffi-1.1.2",
      "packageUri": "lib/",
      "languageVersion": "2.12"
    },
    {
      "name": "file",
      "rootUri": "file:///Users/musakirkkeseli/developer/flutter/.pub-cache/hosted/pub.dartlang.org/file-6.1.2",
      "packageUri": "lib/",
      "languageVersion": "2.12"
    },
    {
      "name": "firebase_auth",
      "rootUri": "file:///Users/musakirkkeseli/developer/flutter/.pub-cache/hosted/pub.dartlang.org/firebase_auth-3.3.14",
      "packageUri": "lib/",
      "languageVersion": "2.16"
    },
    {
      "name": "firebase_auth_platform_interface",
      "rootUri": "file:///Users/musakirkkeseli/developer/flutter/.pub-cache/hosted/pub.dartlang.org/firebase_auth_platform_interface-6.2.3",
      "packageUri": "lib/",
      "languageVersion": "2.16"
    },
    {
      "name": "firebase_auth_web",
      "rootUri": "file:///Users/musakirkkeseli/developer/flutter/.pub-cache/hosted/pub.dartlang.org/firebase_auth_web-3.3.12",
      "packageUri": "lib/",
      "languageVersion": "2.16"
    },
    {
      "name": "firebase_core",
      "rootUri": "file:///Users/musakirkkeseli/developer/flutter/.pub-cache/hosted/pub.dartlang.org/firebase_core-1.14.1",
      "packageUri": "lib/",
      "languageVersion": "2.16"
    },
    {
      "name": "firebase_core_platform_interface",
      "rootUri": "file:///Users/musakirkkeseli/developer/flutter/.pub-cache/hosted/pub.dartlang.org/firebase_core_platform_interface-4.2.5",
      "packageUri": "lib/",
      "languageVersion": "2.16"
    },
    {
      "name": "firebase_core_web",
      "rootUri": "file:///Users/musakirkkeseli/developer/flutter/.pub-cache/hosted/pub.dartlang.org/firebase_core_web-1.6.2",
      "packageUri": "lib/",
      "languageVersion": "2.16"
    },
    {
      "name": "firebase_storage",
      "rootUri": "file:///Users/musakirkkeseli/developer/flutter/.pub-cache/hosted/pub.dartlang.org/firebase_storage-10.2.12",
      "packageUri": "lib/",
      "languageVersion": "2.16"
    },
    {
      "name": "firebase_storage_platform_interface",
      "rootUri": "file:///Users/musakirkkeseli/developer/flutter/.pub-cache/hosted/pub.dartlang.org/firebase_storage_platform_interface-4.1.3",
      "packageUri": "lib/",
      "languageVersion": "2.16"
    },
    {
      "name": "firebase_storage_web",
      "rootUri": "file:///Users/musakirkkeseli/developer/flutter/.pub-cache/hosted/pub.dartlang.org/firebase_storage_web-3.2.12",
      "packageUri": "lib/",
      "languageVersion": "2.16"
    },
    {
      "name": "fixnum",
      "rootUri": "file:///Users/musakirkkeseli/developer/flutter/.pub-cache/hosted/pub.dartlang.org/fixnum-1.0.0",
      "packageUri": "lib/",
      "languageVersion": "2.12"
    },
    {
      "name": "flutter",
      "rootUri": "file:///Users/musakirkkeseli/developer/flutter/packages/flutter",
      "packageUri": "lib/",
      "languageVersion": "2.12"
    },
    {
      "name": "flutter_inappwebview",
      "rootUri": "file:///Users/musakirkkeseli/developer/flutter/.pub-cache/hosted/pub.dartlang.org/flutter_inappwebview-5.3.2",
      "packageUri": "lib/",
      "languageVersion": "2.12"
    },
    {
      "name": "flutter_lints",
      "rootUri": "file:///Users/musakirkkeseli/developer/flutter/.pub-cache/hosted/pub.dartlang.org/flutter_lints-1.0.4",
      "packageUri": "lib/",
      "languageVersion": "2.12"
    },
    {
      "name": "flutter_test",
      "rootUri": "file:///Users/musakirkkeseli/developer/flutter/packages/flutter_test",
      "packageUri": "lib/",
      "languageVersion": "2.12"
    },
    {
      "name": "flutter_web_plugins",
      "rootUri": "file:///Users/musakirkkeseli/developer/flutter/packages/flutter_web_plugins",
      "packageUri": "lib/",
      "languageVersion": "2.12"
    },
    {
      "name": "frontend_server_client",
      "rootUri": "file:///Users/musakirkkeseli/developer/flutter/.pub-cache/hosted/pub.dartlang.org/frontend_server_client-2.1.2",
      "packageUri": "lib/",
      "languageVersion": "2.12"
    },
    {
      "name": "glob",
      "rootUri": "file:///Users/musakirkkeseli/developer/flutter/.pub-cache/hosted/pub.dartlang.org/glob-2.0.2",
      "packageUri": "lib/",
      "languageVersion": "2.14"
    },
    {
      "name": "graphs",
      "rootUri": "file:///Users/musakirkkeseli/developer/flutter/.pub-cache/hosted/pub.dartlang.org/graphs-2.1.0",
      "packageUri": "lib/",
      "languageVersion": "2.12"
    },
    {
      "name": "hive",
      "rootUri": "file:///Users/musakirkkeseli/developer/flutter/.pub-cache/hosted/pub.dartlang.org/hive-2.1.0",
      "packageUri": "lib/",
      "languageVersion": "2.12"
    },
    {
      "name": "hive_flutter",
      "rootUri": "file:///Users/musakirkkeseli/developer/flutter/.pub-cache/hosted/pub.dartlang.org/hive_flutter-1.1.0",
      "packageUri": "lib/",
      "languageVersion": "2.12"
    },
    {
      "name": "hive_generator",
      "rootUri": "file:///Users/musakirkkeseli/developer/flutter/.pub-cache/hosted/pub.dartlang.org/hive_generator-1.1.2",
      "packageUri": "lib/",
      "languageVersion": "2.12"
    },
    {
      "name": "http",
      "rootUri": "file:///Users/musakirkkeseli/developer/flutter/.pub-cache/hosted/pub.dartlang.org/http-0.13.4",
      "packageUri": "lib/",
      "languageVersion": "2.14"
    },
    {
      "name": "http_multi_server",
      "rootUri": "file:///Users/musakirkkeseli/developer/flutter/.pub-cache/hosted/pub.dartlang.org/http_multi_server-3.2.0",
      "packageUri": "lib/",
      "languageVersion": "2.12"
    },
    {
      "name": "http_parser",
      "rootUri": "file:///Users/musakirkkeseli/developer/flutter/.pub-cache/hosted/pub.dartlang.org/http_parser-4.0.0",
      "packageUri": "lib/",
      "languageVersion": "2.12"
    },
    {
      "name": "intl",
      "rootUri": "file:///Users/musakirkkeseli/developer/flutter/.pub-cache/hosted/pub.dartlang.org/intl-0.17.0",
      "packageUri": "lib/",
      "languageVersion": "2.12"
    },
    {
      "name": "io",
      "rootUri": "file:///Users/musakirkkeseli/developer/flutter/.pub-cache/hosted/pub.dartlang.org/io-1.0.3",
      "packageUri": "lib/",
      "languageVersion": "2.12"
    },
    {
      "name": "js",
      "rootUri": "file:///Users/musakirkkeseli/developer/flutter/.pub-cache/hosted/pub.dartlang.org/js-0.6.3",
      "packageUri": "lib/",
      "languageVersion": "2.12"
    },
    {
      "name": "json_annotation",
      "rootUri": "file:///Users/musakirkkeseli/developer/flutter/.pub-cache/hosted/pub.dartlang.org/json_annotation-4.4.0",
      "packageUri": "lib/",
      "languageVersion": "2.14"
    },
    {
      "name": "lints",
      "rootUri": "file:///Users/musakirkkeseli/developer/flutter/.pub-cache/hosted/pub.dartlang.org/lints-1.0.1",
      "packageUri": "lib/",
      "languageVersion": "2.12"
    },
    {
      "name": "logging",
      "rootUri": "file:///Users/musakirkkeseli/developer/flutter/.pub-cache/hosted/pub.dartlang.org/logging-1.0.2",
      "packageUri": "lib/",
      "languageVersion": "2.12"
    },
    {
      "name": "matcher",
      "rootUri": "file:///Users/musakirkkeseli/developer/flutter/.pub-cache/hosted/pub.dartlang.org/matcher-0.12.11",
      "packageUri": "lib/",
      "languageVersion": "2.12"
    },
    {
      "name": "material_color_utilities",
      "rootUri": "file:///Users/musakirkkeseli/developer/flutter/.pub-cache/hosted/pub.dartlang.org/material_color_utilities-0.1.3",
      "packageUri": "lib/",
      "languageVersion": "2.13"
    },
    {
      "name": "meta",
      "rootUri": "file:///Users/musakirkkeseli/developer/flutter/.pub-cache/hosted/pub.dartlang.org/meta-1.7.0",
      "packageUri": "lib/",
      "languageVersion": "2.12"
    },
    {
      "name": "mime",
      "rootUri": "file:///Users/musakirkkeseli/developer/flutter/.pub-cache/hosted/pub.dartlang.org/mime-1.0.1",
      "packageUri": "lib/",
      "languageVersion": "2.12"
    },
    {
      "name": "nested",
      "rootUri": "file:///Users/musakirkkeseli/developer/flutter/.pub-cache/hosted/pub.dartlang.org/nested-1.0.0",
      "packageUri": "lib/",
      "languageVersion": "2.12"
    },
    {
      "name": "onesignal_flutter",
      "rootUri": "file:///Users/musakirkkeseli/developer/flutter/.pub-cache/hosted/pub.dartlang.org/onesignal_flutter-3.3.0",
      "packageUri": "lib/",
      "languageVersion": "2.12"
    },
    {
      "name": "package_config",
      "rootUri": "file:///Users/musakirkkeseli/developer/flutter/.pub-cache/hosted/pub.dartlang.org/package_config-2.0.2",
      "packageUri": "lib/",
      "languageVersion": "2.12"
    },
    {
      "name": "page_transition",
      "rootUri": "file:///Users/musakirkkeseli/developer/flutter/.pub-cache/hosted/pub.dartlang.org/page_transition-2.0.5",
      "packageUri": "lib/",
      "languageVersion": "2.12"
    },
    {
      "name": "path",
      "rootUri": "file:///Users/musakirkkeseli/developer/flutter/.pub-cache/hosted/pub.dartlang.org/path-1.8.0",
      "packageUri": "lib/",
      "languageVersion": "2.12"
    },
    {
      "name": "path_provider",
      "rootUri": "file:///Users/musakirkkeseli/developer/flutter/.pub-cache/hosted/pub.dartlang.org/path_provider-2.0.9",
      "packageUri": "lib/",
      "languageVersion": "2.14"
    },
    {
      "name": "path_provider_android",
      "rootUri": "file:///Users/musakirkkeseli/developer/flutter/.pub-cache/hosted/pub.dartlang.org/path_provider_android-2.0.12",
      "packageUri": "lib/",
      "languageVersion": "2.14"
    },
    {
      "name": "path_provider_ios",
      "rootUri": "file:///Users/musakirkkeseli/developer/flutter/.pub-cache/hosted/pub.dartlang.org/path_provider_ios-2.0.8",
      "packageUri": "lib/",
      "languageVersion": "2.14"
    },
    {
      "name": "path_provider_linux",
      "rootUri": "file:///Users/musakirkkeseli/developer/flutter/.pub-cache/hosted/pub.dartlang.org/path_provider_linux-2.1.5",
      "packageUri": "lib/",
      "languageVersion": "2.12"
    },
    {
      "name": "path_provider_macos",
      "rootUri": "file:///Users/musakirkkeseli/developer/flutter/.pub-cache/hosted/pub.dartlang.org/path_provider_macos-2.0.5",
      "packageUri": "lib/",
      "languageVersion": "2.12"
    },
    {
      "name": "path_provider_platform_interface",
      "rootUri": "file:///Users/musakirkkeseli/developer/flutter/.pub-cache/hosted/pub.dartlang.org/path_provider_platform_interface-2.0.3",
      "packageUri": "lib/",
      "languageVersion": "2.12"
    },
    {
      "name": "path_provider_windows",
      "rootUri": "file:///Users/musakirkkeseli/developer/flutter/.pub-cache/hosted/pub.dartlang.org/path_provider_windows-2.0.5",
      "packageUri": "lib/",
      "languageVersion": "2.12"
    },
    {
      "name": "percent_indicator",
      "rootUri": "file:///Users/musakirkkeseli/developer/flutter/.pub-cache/hosted/pub.dartlang.org/percent_indicator-4.0.0",
      "packageUri": "lib/",
      "languageVersion": "2.12"
    },
    {
      "name": "platform",
      "rootUri": "file:///Users/musakirkkeseli/developer/flutter/.pub-cache/hosted/pub.dartlang.org/platform-3.1.0",
      "packageUri": "lib/",
      "languageVersion": "2.12"
    },
    {
      "name": "plugin_platform_interface",
      "rootUri": "file:///Users/musakirkkeseli/developer/flutter/.pub-cache/hosted/pub.dartlang.org/plugin_platform_interface-2.1.2",
      "packageUri": "lib/",
      "languageVersion": "2.12"
    },
    {
      "name": "pool",
      "rootUri": "file:///Users/musakirkkeseli/developer/flutter/.pub-cache/hosted/pub.dartlang.org/pool-1.5.0",
      "packageUri": "lib/",
      "languageVersion": "2.12"
    },
    {
      "name": "process",
      "rootUri": "file:///Users/musakirkkeseli/developer/flutter/.pub-cache/hosted/pub.dartlang.org/process-4.2.4",
      "packageUri": "lib/",
      "languageVersion": "2.14"
    },
    {
      "name": "provider",
      "rootUri": "file:///Users/musakirkkeseli/developer/flutter/.pub-cache/hosted/pub.dartlang.org/provider-6.0.2",
      "packageUri": "lib/",
      "languageVersion": "2.12"
    },
    {
      "name": "pub_semver",
      "rootUri": "file:///Users/musakirkkeseli/developer/flutter/.pub-cache/hosted/pub.dartlang.org/pub_semver-2.1.1",
      "packageUri": "lib/",
      "languageVersion": "2.12"
    },
    {
      "name": "pubspec_parse",
      "rootUri": "file:///Users/musakirkkeseli/developer/flutter/.pub-cache/hosted/pub.dartlang.org/pubspec_parse-1.2.0",
      "packageUri": "lib/",
      "languageVersion": "2.14"
    },
    {
      "name": "shelf",
      "rootUri": "file:///Users/musakirkkeseli/developer/flutter/.pub-cache/hosted/pub.dartlang.org/shelf-1.3.0",
      "packageUri": "lib/",
      "languageVersion": "2.16"
    },
    {
      "name": "shelf_web_socket",
      "rootUri": "file:///Users/musakirkkeseli/developer/flutter/.pub-cache/hosted/pub.dartlang.org/shelf_web_socket-1.0.1",
      "packageUri": "lib/",
      "languageVersion": "2.12"
    },
    {
      "name": "sky_engine",
      "rootUri": "file:///Users/musakirkkeseli/developer/flutter/bin/cache/pkg/sky_engine",
      "packageUri": "lib/",
      "languageVersion": "2.12"
    },
    {
      "name": "source_gen",
      "rootUri": "file:///Users/musakirkkeseli/developer/flutter/.pub-cache/hosted/pub.dartlang.org/source_gen-1.2.2",
      "packageUri": "lib/",
      "languageVersion": "2.12"
    },
    {
      "name": "source_helper",
      "rootUri": "file:///Users/musakirkkeseli/developer/flutter/.pub-cache/hosted/pub.dartlang.org/source_helper-1.3.2",
      "packageUri": "lib/",
      "languageVersion": "2.12"
    },
    {
      "name": "source_span",
      "rootUri": "file:///Users/musakirkkeseli/developer/flutter/.pub-cache/hosted/pub.dartlang.org/source_span-1.8.1",
      "packageUri": "lib/",
      "languageVersion": "2.12"
    },
    {
      "name": "stack_trace",
      "rootUri": "file:///Users/musakirkkeseli/developer/flutter/.pub-cache/hosted/pub.dartlang.org/stack_trace-1.10.0",
      "packageUri": "lib/",
      "languageVersion": "2.12"
    },
    {
      "name": "stream_channel",
      "rootUri": "file:///Users/musakirkkeseli/developer/flutter/.pub-cache/hosted/pub.dartlang.org/stream_channel-2.1.0",
      "packageUri": "lib/",
      "languageVersion": "2.12"
    },
    {
      "name": "stream_transform",
      "rootUri": "file:///Users/musakirkkeseli/developer/flutter/.pub-cache/hosted/pub.dartlang.org/stream_transform-2.0.0",
      "packageUri": "lib/",
      "languageVersion": "2.12"
    },
    {
      "name": "string_scanner",
      "rootUri": "file:///Users/musakirkkeseli/developer/flutter/.pub-cache/hosted/pub.dartlang.org/string_scanner-1.1.0",
      "packageUri": "lib/",
      "languageVersion": "2.12"
    },
    {
      "name": "term_glyph",
      "rootUri": "file:///Users/musakirkkeseli/developer/flutter/.pub-cache/hosted/pub.dartlang.org/term_glyph-1.2.0",
      "packageUri": "lib/",
      "languageVersion": "2.12"
    },
    {
      "name": "test_api",
      "rootUri": "file:///Users/musakirkkeseli/developer/flutter/.pub-cache/hosted/pub.dartlang.org/test_api-0.4.8",
      "packageUri": "lib/",
      "languageVersion": "2.12"
    },
    {
      "name": "timing",
      "rootUri": "file:///Users/musakirkkeseli/developer/flutter/.pub-cache/hosted/pub.dartlang.org/timing-1.0.0",
      "packageUri": "lib/",
      "languageVersion": "2.12"
    },
    {
      "name": "typed_data",
      "rootUri": "file:///Users/musakirkkeseli/developer/flutter/.pub-cache/hosted/pub.dartlang.org/typed_data-1.3.0",
      "packageUri": "lib/",
      "languageVersion": "2.12"
    },
    {
      "name": "url_launcher",
      "rootUri": "file:///Users/musakirkkeseli/developer/flutter/.pub-cache/hosted/pub.dartlang.org/url_launcher-6.0.20",
      "packageUri": "lib/",
      "languageVersion": "2.14"
    },
    {
      "name": "url_launcher_android",
      "rootUri": "file:///Users/musakirkkeseli/developer/flutter/.pub-cache/hosted/pub.dartlang.org/url_launcher_android-6.0.15",
      "packageUri": "lib/",
      "languageVersion": "2.14"
    },
    {
      "name": "url_launcher_ios",
      "rootUri": "file:///Users/musakirkkeseli/developer/flutter/.pub-cache/hosted/pub.dartlang.org/url_launcher_ios-6.0.15",
      "packageUri": "lib/",
      "languageVersion": "2.14"
    },
    {
      "name": "url_launcher_linux",
      "rootUri": "file:///Users/musakirkkeseli/developer/flutter/.pub-cache/hosted/pub.dartlang.org/url_launcher_linux-3.0.0",
      "packageUri": "lib/",
      "languageVersion": "2.12"
    },
    {
      "name": "url_launcher_macos",
      "rootUri": "file:///Users/musakirkkeseli/developer/flutter/.pub-cache/hosted/pub.dartlang.org/url_launcher_macos-3.0.0",
      "packageUri": "lib/",
      "languageVersion": "2.12"
    },
    {
      "name": "url_launcher_platform_interface",
      "rootUri": "file:///Users/musakirkkeseli/developer/flutter/.pub-cache/hosted/pub.dartlang.org/url_launcher_platform_interface-2.0.5",
      "packageUri": "lib/",
      "languageVersion": "2.12"
    },
    {
      "name": "url_launcher_web",
      "rootUri": "file:///Users/musakirkkeseli/developer/flutter/.pub-cache/hosted/pub.dartlang.org/url_launcher_web-2.0.9",
      "packageUri": "lib/",
      "languageVersion": "2.12"
    },
    {
      "name": "url_launcher_windows",
      "rootUri": "file:///Users/musakirkkeseli/developer/flutter/.pub-cache/hosted/pub.dartlang.org/url_launcher_windows-3.0.0",
      "packageUri": "lib/",
      "languageVersion": "2.12"
    },
    {
      "name": "vector_math",
      "rootUri": "file:///Users/musakirkkeseli/developer/flutter/.pub-cache/hosted/pub.dartlang.org/vector_math-2.1.1",
      "packageUri": "lib/",
      "languageVersion": "2.14"
    },
    {
      "name": "watcher",
      "rootUri": "file:///Users/musakirkkeseli/developer/flutter/.pub-cache/hosted/pub.dartlang.org/watcher-1.0.1",
      "packageUri": "lib/",
      "languageVersion": "2.14"
    },
    {
      "name": "web_socket_channel",
      "rootUri": "file:///Users/musakirkkeseli/developer/flutter/.pub-cache/hosted/pub.dartlang.org/web_socket_channel-2.1.0",
      "packageUri": "lib/",
      "languageVersion": "2.12"
    },
    {
      "name": "win32",
      "rootUri": "file:///Users/musakirkkeseli/developer/flutter/.pub-cache/hosted/pub.dartlang.org/win32-2.5.1",
      "packageUri": "lib/",
      "languageVersion": "2.15"
    },
    {
      "name": "xdg_directories",
      "rootUri": "file:///Users/musakirkkeseli/developer/flutter/.pub-cache/hosted/pub.dartlang.org/xdg_directories-0.2.0+1",
      "packageUri": "lib/",
      "languageVersion": "2.12"
    },
    {
      "name": "yaml",
      "rootUri": "file:///Users/musakirkkeseli/developer/flutter/.pub-cache/hosted/pub.dartlang.org/yaml-3.1.0",
      "packageUri": "lib/",
      "languageVersion": "2.12"
    },
    {
      "name": "youtube_player_flutter",
      "rootUri": "file:///Users/musakirkkeseli/developer/flutter/.pub-cache/hosted/pub.dartlang.org/youtube_player_flutter-8.0.0",
      "packageUri": "lib/",
      "languageVersion": "2.12"
    },
    {
      "name": "dhbtokulu",
      "rootUri": "../",
      "packageUri": "lib/",
      "languageVersion": "2.16"
    }
  ],
  "generated": "2022-04-21T15:55:20.882915Z",
  "generator": "pub",
  "generatorVersion": "2.16.2"
}
